^C:\USERS\KHUMB\C++ GIT\EXERCISES\C3_U09_DEFAULTPARAMETERS\U09EX\U09EX\MAIN.CPP|C:\USERS\KHUMB\C++ GIT\EXERCISES\C3_U09_DEFAULTPARAMETERS\U09EX\U09EX\PRODUCT.CPP
C:\USERS\KHUMB\C++ GIT\EXERCISES\C3_U09_DEFAULTPARAMETERS\U09EX\U09EX\X64\DEBUG\VC143.PDB
C:\USERS\KHUMB\C++ GIT\EXERCISES\C3_U09_DEFAULTPARAMETERS\U09EX\U09EX\X64\DEBUG\VC143.IDB
C:\USERS\KHUMB\C++ GIT\EXERCISES\C3_U09_DEFAULTPARAMETERS\U09EX\U09EX\X64\DEBUG\PRODUCT.OBJ
C:\USERS\KHUMB\C++ GIT\EXERCISES\C3_U09_DEFAULTPARAMETERS\U09EX\U09EX\X64\DEBUG\MAIN.OBJ
^C:\USERS\KHUMB\C++ GIT\EXERCISES\C3_U09_DEFAULTPARAMETERS\U09EX\U09EX\PRODUCT.CPP
C:\USERS\KHUMB\C++ GIT\EXERCISES\C3_U09_DEFAULTPARAMETERS\U09EX\U09EX\X64\DEBUG\VC143.PDB
^C:\USERS\KHUMB\C++ GIT\EXERCISES\C3_U09_DEFAULTPARAMETERS\U09EX\U09EX\MAIN.CPP
C:\USERS\KHUMB\C++ GIT\EXERCISES\C3_U09_DEFAULTPARAMETERS\U09EX\U09EX\X64\DEBUG\VC143.PDB
C:\USERS\KHUMB\C++ GIT\EXERCISES\C3_U09_DEFAULTPARAMETERS\U09EX\U09EX\X64\DEBUG\VC143.IDB
C:\USERS\KHUMB\C++ GIT\EXERCISES\C3_U09_DEFAULTPARAMETERS\U09EX\U09EX\X64\DEBUG\MAIN.OBJ
